{
  "src": [
    "static/sounds.ogg",
    "static/sounds.webm"
  ],
  "sprite": {
    "capture": [
      0,
      2016.077097505669
    ],
    "chat": [
      3000,
      1979.047619047619
    ],
    "click": [
      5000,
      1133.9682539682537
    ],
    "defeat": [
      7000,
      4451.428571428572
    ],
    "newhighest": [
      12000,
      4861.269841269841
    ],
    "nextlevel": [
      17000,
      3535.374149659866
    ],
    "violindown": [
      21000,
      1433.10657596372
    ],
    "violinleft": [
      23000,
      1367.2789115646253
    ],
    "violinright": [
      25000,
      1483.7414965986397
    ],
    "violinup": [
      27000,
      1540.6122448979572
    ]
  }
}